{
  "users": {
    "user1": {
      "password": "String",
      "_id": 2012,
      "mail": "String",
      "acl": {
        "access_rights": [
          
        ]
      }
    }
  },
  "cheatsheets": {
    "cheatsheet": {
      "owner": "userId",
      "userId": "String",
      "name": "Cheatsheet1",
      "cheatsheet_pages": [
        {
          "templateId": "Template1",
          "name": "cheatsheet1_page1",
          "owner": "userId",
          "_id": "string",
          "rank": "number",
          "page_columns": [
            {
              "name": "cheatsheet1_page1_column1",
              "_id": "string",
              "rank": "number",
              "column_containers": [
                {
                  "name": "cheatsheet1_page1_column1_container1",
                  "_id": "string",
                  "rank": "number",
                  "container_contentItems": [
                    {
                      "_id": "string",
                      "content": "String",
                      "name": "cheatsheet1_page1_column1_container1_contentitem1",
                      "rank": "number"
                    },
                    {
                      "_id": "string",
                      "content": "String",
                      "name": "cheatsheet1_page1_column1_container1_contentitem2",
                      "rank": "number"
                    },
                    {
                      "_id": "string",
                      "content": "String",
                      "name": "cheatsheet1_page1_column1_container1_contentitem3",
                      "rank": "number"
                    }
                  ]
                },
                {
                  "name": "cheatsheet1_page1_column1_container2",
                  "_id": "string",
                  "rank": "number",
                  "container_contentItems": [
                    {
                      "_id": "string",
                      "content": "String",
                      "name": "cheatsheet1_page1_column1_container2_contentitem1",
                      "rank": "number"
                    },
                    {
                      "_id": "string",
                      "content": "String",
                      "name": "cheatsheet1_page1_column1_container2_contentitem2",
                      "rank": "number"
                    },
                    {
                      "_id": "string",
                      "content": "String",
                      "name": "cheatsheet1_page1_column1_container2_contentitem3",
                      "rank": "number"
                    }
                  ]
                },
                {
                  "name": "cheatsheet1_page1_column1_container3",
                  "_id": "string",
                  "rank": "number",
                  "container_contentItems": [
                    {
                      "_id": "string",
                      "content": "String",
                      "name": "cheatsheet1_page1_column1_container3_contentitem1",
                      "rank": "number"
                    },
                    {
                      "_id": "string",
                      "content": "String",
                      "name": "cheatsheet1_page1_column1_container3_contentitem2",
                      "rank": "number"
                    },
                    {
                      "_id": "string",
                      "content": "String",
                      "name": "cheatsheet1_page1_column1_container3_contentitem3",
                      "rank": "number"
                    }
                  ]
                }
              ]
            },
            {
              "name": "cheatsheet1_page1_column2",
              "page_columnId": "string",
              "rank": "number",
              "column_containers": [
                {
                  "name": "cheatsheet1_page1_column2_container1",
                  "_id": "string",
                  "rank": "number",
                  "container_contentItems": [
                    {
                      "_id": "string",
                      "content": "String",
                      "name": "cheatsheet1_page1_column1_container1_contentitem1",
                      "rank": "number"
                    },
                    {
                      "_id": "string",
                      "content": "String",
                      "name": "cheatsheet1_page1_column1_container1_contentitem2",
                      "rank": "number"
                    },
                    {
                      "_id": "string",
                      "content": "String",
                      "name": "cheatsheet1_page1_column1_container1_contentitem3",
                      "rank": "number"
                    }
                  ]
                },
                {
                  "name": "cheatsheet1_page1_column2_container2",
                  "_id": "string",
                  "rank": "number",
                  "container_contentItems": [
                    {
                      "_id": "string",
                      "content": "String",
                      "name": "cheatsheet1_page1_column2_container2_contentitem1",
                      "rank": "number"
                    },
                    {
                      "_id": "string",
                      "content": "String",
                      "name": "cheatsheet1_page1_column2_container2_contentitem2",
                      "rank": "number"
                    },
                    {
                      "_id": "string",
                      "content": "String",
                      "name": "cheatsheet1_page1_column2_container2_contentitem3",
                      "rank": "number"
                    }
                  ]
                },
                {
                  "name": "cheatsheet1_page1_column2_container3",
                  "_id": "string",
                  "rank": "number",
                  "container_contentItems": [
                    {
                      "_id": "string",
                      "content": "String",
                      "name": "cheatsheet1_page1_column1_container1_contentitem1",
                      "rank": "number"
                    },
                    {
                      "_id": "string",
                      "content": "String",
                      "name": "cheatsheet1_page1_column1_container1_contentitem2",
                      "rank": "number"
                    },
                    {
                      "_id": "string",
                      "content": "String",
                      "name": "cheatsheet1_page1_column1_container1_contentitem3",
                      "rank": "number"
                    }
                  ]
                }
              ]
            },
            {
              "name": "cheatsheet1_page1_column3",
              "_id": "string",
              "rank": "number",
              "column_containers": [
                {
                  "name": "cheatsheet1_page1_column3_container1",
                  "_id": "string",
                  "rank": "number",
                  "container_contentItems": [
                    {
                      "_id": "string",
                      "content": "String",
                      "name": "cheatsheet1_page1_column3_container1_contentitem1",
                      "rank": "number"
                    },
                    {
                      "_id": "string",
                      "content": "String",
                      "name": "cheatsheet1_page1_column3_container1_contentitem2",
                      "rank": "number"
                    },
                    {
                      "_id": "string",
                      "content": "String",
                      "name": "cheatsheet1_page1_column3_container1_contentitem3",
                      "rank": "number"
                    }
                  ]
                },
                {
                  "name": "cheatsheet1_page1_column3_container2",
                  "_id": "string",
                  "rank": "number",
                  "container_contentItems": [
                    {
                      "_id": "string",
                      "content": "String",
                      "name": "cheatsheet1_page1_column3_container2_contentitem1",
                      "rank": "number"
                    },
                    {
                      "_id": "string",
                      "content": "String",
                      "name": "cheatsheet1_page1_column3_container2_contentitem2",
                      "rank": "number"
                    },
                    {
                      "_id": "string",
                      "content": "String",
                      "name": "cheatsheet1_page1_column3_container2_contentitem3",
                      "rank": "number"
                    }
                  ]
                },
                {
                  "name": "cheatsheet1_page1_column3_container3",
                  "_id": "string",
                  "rank": "number",
                  "container_contentItems": [
                    {
                      "_id": "string",
                      "content": "String",
                      "name": "cheatsheet1_page1_column3_container3_contentitem1",
                      "rank": "number"
                    },
                    {
                      "_id": "string",
                      "content": "String",
                      "name": "cheatsheet1_page1_column3_container3_contentitem2",
                      "rank": "number"
                    },
                    {
                      "_id": "string",
                      "content": "String",
                      "name": "cheatsheet1_page1_column3_container3_contentitem3",
                      "rank": "number"
                    }
                  ]
                }
              ]
            }
          ]
        }
      ]
    },
    "cheatsheet2": {
      "owner": "userId",
      "userId": "String",
      "name": "cheatsheet2",
      "cheatsheet_pages": [
        {
          "name": "cheatsheet2_page1",
          "owner": "userId",
          "_id": "string",
          "rank": "number",
          "page_columns": [
            {
              "name": "cheatsheet2_page1_column1",
              "_id": "string",
              "rank": "number",
              "column_containers": [
                {
                  "name": "cheatsheet2_page1_column1_container1",
                  "_id": "string",
                  "rank": "number",
                  "container_contentItems": [
                    {
                      "_id": "string",
                      "content": "String",
                      "name": "cheatsheet2_page1_column1_container1_contentitem1",
                      "rank": "number"
                    },
                    {
                      "_id": "string",
                      "content": "String",
                      "name": "cheatsheet2_page1_column1_container1_contentitem2",
                      "rank": "number"
                    },
                    {
                      "_id": "string",
                      "content": "String",
                      "name": "cheatsheet2_page1_column1_container1_contentitem3",
                      "rank": "number"
                    }
                  ]
                },
                {
                  "name": "cheatsheet2_page1_column1_container2",
                  "_id": "string",
                  "rank": "number",
                  "container_contentItems": [
                    {
                      "_id": "string",
                      "content": "String",
                      "name": "cheatsheet2_page1_column1_container2_contentitem1",
                      "rank": "number"
                    },
                    {
                      "_id": "string",
                      "content": "String",
                      "name": "cheatsheet2_page1_column1_container2_contentitem2",
                      "rank": "number"
                    },
                    {
                      "_id": "string",
                      "content": "String",
                      "name": "cheatsheet2_page1_column1_container2_contentitem3",
                      "rank": "number"
                    }
                  ]
                },
                {
                  "name": "cheatsheet2_page1_column1_container3",
                  "_id": "string",
                  "rank": "number",
                  "container_contentItems": [
                    {
                      "_id": "string",
                      "content": "String",
                      "name": "cheatsheet2_page1_column1_container3_contentitem1",
                      "rank": "number"
                    },
                    {
                      "_id": "string",
                      "content": "String",
                      "name": "cheatsheet2_page1_column1_container3_contentitem2",
                      "rank": "number"
                    },
                    {
                      "_id": "string",
                      "content": "String",
                      "name": "cheatsheet2_page1_column1_container3_contentitem3",
                      "rank": "number"
                    }
                  ]
                }
              ]
            },
            {
              "name": "cheatsheet2_page1_column2",
              "_id": "string",
              "rank": "number",
              "column_containers": [
                {
                  "name": "cheatsheet2_page1_column2_container1",
                  "_id": "string",
                  "rank": "number",
                  "container_contentItems": [
                    {
                      "_id": "string",
                      "content": "String",
                      "name": "cheatsheet2_page1_column1_container1_contentitem1",
                      "rank": "number"
                    },
                    {
                      "_id": "string",
                      "content": "String",
                      "name": "cheatsheet2_page1_column1_container1_contentitem2",
                      "rank": "number"
                    },
                    {
                      "_id": "string",
                      "content": "String",
                      "name": "cheatsheet2_page1_column1_container1_contentitem3",
                      "rank": "number"
                    }
                  ]
                },
                {
                  "name": "cheatsheet2_page1_column2_container2",
                  "_id": "string",
                  "rank": "number",
                  "container_contentItems": [
                    {
                      "_id": "string",
                      "content": "String",
                      "name": "cheatsheet2_page1_column2_container2_contentitem1",
                      "rank": "number"
                    },
                    {
                      "_id": "string",
                      "content": "String",
                      "name": "cheatsheet2_page1_column2_container2_contentitem2",
                      "rank": "number"
                    },
                    {
                      "_id": "string",
                      "content": "String",
                      "name": "cheatsheet2_page1_column2_container2_contentitem3",
                      "rank": "number"
                    }
                  ]
                },
                {
                  "name": "cheatsheet2_page1_column2_container3",
                  "_id": "string",
                  "rank": "number",
                  "container_contentItems": [
                    {
                      "_id": "string",
                      "content": "String",
                      "name": "cheatsheet2_page1_column1_container1_contentitem1",
                      "rank": "number"
                    },
                    {
                      "_id": "string",
                      "content": "String",
                      "name": "cheatsheet2_page1_column1_container1_contentitem2",
                      "rank": "number"
                    },
                    {
                      "_id": "string",
                      "content": "String",
                      "name": "cheatsheet2_page1_column1_container1_contentitem3",
                      "rank": "number"
                    }
                  ]
                }
              ]
            },
            {
              "name": "cheatsheet2_page1_column3",
              "page_columnId": "string",
              "rank": "number",
              "column_containers": [
                {
                  "name": "cheatsheet2_page1_column3_container1",
                  "_id": "string",
                  "rank": "number",
                  "container_contentItems": [
                    {
                      "_id": "string",
                      "content": "String",
                      "name": "cheatsheet2_page1_column3_container1_contentitem1",
                      "rank": "number"
                    },
                    {
                      "_id": "string",
                      "content": "String",
                      "name": "cheatsheet2_page1_column3_container1_contentitem2",
                      "rank": "number"
                    },
                    {
                      "_id": "string",
                      "content": "String",
                      "name": "cheatsheet2_page1_column3_container1_contentitem3",
                      "rank": "number"
                    }
                  ]
                },
                {
                  "name": "cheatsheet2_page1_column3_container2",
                  "_id": "string",
                  "rank": "number",
                  "container_contentItems": [
                    {
                      "_id": "string",
                      "content": "String",
                      "name": "cheatsheet2_page1_column3_container2_contentitem1",
                      "rank": "number"
                    },
                    {
                      "_id": "string",
                      "content": "String",
                      "name": "cheatsheet2_page1_column3_container2_contentitem2",
                      "rank": "number"
                    },
                    {
                      "_id": "string",
                      "content": "String",
                      "name": "cheatsheet2_page1_column3_container2_contentitem3",
                      "rank": "number"
                    }
                  ]
                },
                {
                  "name": "cheatsheet2_page1_column3_container3",
                  "_id": "string",
                  "rank": "number",
                  "container_contentItems": [
                    {
                      "_id": "string",
                      "content": "String",
                      "name": "cheatsheet2_page1_column3_container3_contentitem1",
                      "rank": "number"
                    },
                    {
                      "_id": "string",
                      "content": "String",
                      "name": "cheatsheet2_page1_column3_container3_contentitem2",
                      "rank": "number"
                    },
                    {
                      "_id": "string",
                      "content": "String",
                      "name": "cheatsheet2_page1_column3_container3_contentitem3",
                      "rank": "number"
                    }
                  ]
                }
              ]
            }
          ]
        }
      ]
    }
  },
  "templates": {
    "template": {
      "ownerId": "String",
      "html": "<div id=“{{_id}} class=\"container\">\n</div>\n\n",
      "css": "String",
      "name": "Template1",
      "pages": [
        {
          "_id": "string",
          "name": "page1_template_name",
          "html": "String",
          "css": "String",
          "rank": 1,
          "page_columns": [
            {
              "_id": "string",
              "name": "page1_column1_template_name",
              "html": "String",
              "css": "String",
              "rank": 1,
              "column_containers": [
                {
                  "_id": "string",
                  "name": "page1_column1_container1_template_name",
                  "html": "String",
                  "css": "String",
                  "rank": 2012,
                  "container_contentitems": [
                    {
                      "name": "page1_column1_container1_contentitem1_template_name",
                      "_id": "string",
                      "html": "String",
                      "css": "String"
                    }
                  ]
                }
              ]
            },
            {
              "_id": "string",
              "name": "page1_column1_template_name",
              "html": "String",
              "css": "String",
              "rank": 2,
              "column_containers": [
                {
                  "_id": "string",
                  "name": "page1_column1_container1_template_name",
                  "html": "String",
                  "css": "String",
                  "rank": 2012,
                  "container_contentitems": [
                    {
                      "name": "page1_column1_container1_contentitem1_template_name",
                      "_id": "string",
                      "html": "String",
                      "css": "String"
                    }
                  ]
                }
              ]
            },
            {
              "_id": "string",
              "name": "page1_column1_template_name",
              "html": "String",
              "css": "String",
              "rank": 3,
              "column_containers": [
                {
                  "_id": "string",
                  "name": "page1_column1_container1_template_name",
                  "html": "String",
                  "css": "String",
                  "rank": 2012,
                  "container_contentitems": [
                    {
                      "name": "page1_column1_container1_contentitem1_template_name",
                      "_id": "string",
                      "html": "String",
                      "css": "String"
                    }
                  ]
                }
              ]
            }
          ]
        }
      ]
    }
  },
  "template_old": {
    "pagetemplate": {
      "subscribers": [
        {
          "userid": "user1",
          "rights": "c,r,u,d"
        }
      ],
      "owner": "userId",
      "columns": [
        {
          "subscribers": [
            {
              "userid": "user1",
              "rights": "c,r,u,d"
            }
          ],
          "inlinecss": "String",
          "rank": "number",
          "column_id": "string",
          "customhtml": "String",
          "containers": [
            {
              "subscribers": [
                {
                  "userid": "user1",
                  "rights": "c,r,u,d"
                }
              ],
              "customhtml": "String",
              "inlinecss": "String",
              "container_id": "string",
              "customheadline": "String",
              "rank": "number"
            }
          ],
          "headline": "String"
        }
      ],
      "rank": "number"
    },
    "owner": "userId",
    "mainhtml": "String",
    "columns": [
      {
        "NewKey": {
          
        }
      }
    ],
    "maincss": "String"
  }
}